^Z:\DEVELOPMENT\C++\ULTRAGREPSOCKETS\CONSOLELOGGERHELPER\CONSOLELOGGER.CPP
/c /ZI /JMC /nologo /W3 /WX- /diagnostics:column /sdl /Od /Oy- /D _MBCS /Gm- /EHsc /RTC1 /MDd /GS /fp:precise /permissive- /Zc:wchar_t /Zc:forScope /Zc:inline /Fo"DEBUG\\" /Fd"DEBUG\VC142.PDB" /Gd /TP /analyze- /FC Z:\DEVELOPMENT\C++\ULTRAGREPSOCKETS\CONSOLELOGGERHELPER\CONSOLELOGGER.CPP
^Z:\DEVELOPMENT\C++\ULTRAGREPSOCKETS\CONSOLELOGGERHELPER\CONSOLELOGGERHELPER.CPP
/c /ZI /JMC /nologo /W3 /WX- /diagnostics:column /sdl /Od /Oy- /D _MBCS /Gm- /EHsc /RTC1 /MDd /GS /fp:precise /permissive- /Zc:wchar_t /Zc:forScope /Zc:inline /Fo"DEBUG\\" /Fd"DEBUG\VC142.PDB" /Gd /TP /analyze- /FC Z:\DEVELOPMENT\C++\ULTRAGREPSOCKETS\CONSOLELOGGERHELPER\CONSOLELOGGERHELPER.CPP
