^Z:\DEVELOPMENT\C++\ULTRAGREPSOCKETS\CONSOLELOGGERHELPER\CONSOLELOGGER.CPP|Z:\DEVELOPMENT\C++\ULTRAGREPSOCKETS\CONSOLELOGGERHELPER\CONSOLELOGGERHELPER.CPP
Z:\DEVELOPMENT\C++\ULTRAGREPSOCKETS\CONSOLELOGGERHELPER\DEBUG\VC142.PDB
Z:\DEVELOPMENT\C++\ULTRAGREPSOCKETS\CONSOLELOGGERHELPER\DEBUG\VC142.IDB
Z:\DEVELOPMENT\C++\ULTRAGREPSOCKETS\CONSOLELOGGERHELPER\DEBUG\CONSOLELOGGERHELPER.OBJ
Z:\DEVELOPMENT\C++\ULTRAGREPSOCKETS\CONSOLELOGGERHELPER\DEBUG\CONSOLELOGGER.OBJ
^Z:\DEVELOPMENT\C++\ULTRAGREPSOCKETS\CONSOLELOGGERHELPER\CONSOLELOGGER.CPP
Z:\DEVELOPMENT\C++\ULTRAGREPSOCKETS\CONSOLELOGGERHELPER\DEBUG\VC142.PDB
^Z:\DEVELOPMENT\C++\ULTRAGREPSOCKETS\CONSOLELOGGERHELPER\CONSOLELOGGERHELPER.CPP
Z:\DEVELOPMENT\C++\ULTRAGREPSOCKETS\CONSOLELOGGERHELPER\DEBUG\VC142.PDB
