^Z:\DEVELOPMENT\C++\ULTRAGREPSOCKETS\CONSOLELOGGERHELPER\DEBUG\CONSOLELOGGER.OBJ|Z:\DEVELOPMENT\C++\ULTRAGREPSOCKETS\CONSOLELOGGERHELPER\DEBUG\CONSOLELOGGERHELPER.OBJ
Z:\DEVELOPMENT\C++\ULTRAGREPSOCKETS\DEBUG\CONSOLELOGGERHELPER.ILK
Z:\DEVELOPMENT\C++\ULTRAGREPSOCKETS\DEBUG\CONSOLELOGGERHELPER.EXE
Z:\DEVELOPMENT\C++\ULTRAGREPSOCKETS\DEBUG\CONSOLELOGGERHELPER.PDB
