^Z:\DEVELOPMENT\C++\ULTRAGREPSOCKETS\CONSOLELOGGERHELPER\DEBUG\CONSOLELOGGER.OBJ|Z:\DEVELOPMENT\C++\ULTRAGREPSOCKETS\CONSOLELOGGERHELPER\DEBUG\CONSOLELOGGERHELPER.OBJ
/OUT:"Z:\DEVELOPMENT\C++\ULTRAGREPSOCKETS\DEBUG\CONSOLELOGGERHELPER.EXE" /INCREMENTAL /NOLOGO KERNEL32.LIB USER32.LIB GDI32.LIB WINSPOOL.LIB COMDLG32.LIB ADVAPI32.LIB SHELL32.LIB OLE32.LIB OLEAUT32.LIB UUID.LIB ODBC32.LIB ODBCCP32.LIB /MANIFEST /MANIFESTUAC:"level='asInvoker' uiAccess='false'" /manifest:embed /DEBUG:FASTLINK /PDB:"Z:\DEVELOPMENT\C++\ULTRAGREPSOCKETS\DEBUG\CONSOLELOGGERHELPER.PDB" /SUBSYSTEM:CONSOLE /TLBID:1 /DYNAMICBASE /NXCOMPAT /IMPLIB:"Z:\DEVELOPMENT\C++\ULTRAGREPSOCKETS\DEBUG\CONSOLELOGGERHELPER.LIB" /MACHINE:X86 DEBUG\CONSOLELOGGER.OBJ
DEBUG\CONSOLELOGGERHELPER.OBJ
