^Z:\DEVELOPMENT\C++\ULTRAGREPSOCKETS\GREPCLIENT\DEBUG\CLIENTMAIN.OBJ|Z:\DEVELOPMENT\C++\ULTRAGREPSOCKETS\GREPCLIENT\DEBUG\CONSOLELOGGER.OBJ|Z:\DEVELOPMENT\C++\ULTRAGREPSOCKETS\GREPCLIENT\DEBUG\SOCKET.OBJ
Z:\DEVELOPMENT\C++\ULTRAGREPSOCKETS\DEBUG\GREPCLIENT.ILK
Z:\DEVELOPMENT\C++\ULTRAGREPSOCKETS\DEBUG\GREPCLIENT.EXE
Z:\DEVELOPMENT\C++\ULTRAGREPSOCKETS\DEBUG\GREPCLIENT.PDB
