^Z:\DEVELOPMENT\C++\ULTRAGREPSOCKETS\GREPSERVER\X64\DEBUG\SERVERMAIN.OBJ|Z:\DEVELOPMENT\C++\ULTRAGREPSOCKETS\GREPSERVER\X64\DEBUG\SOCKET.OBJ|Z:\DEVELOPMENT\C++\ULTRAGREPSOCKETS\GREPSERVER\X64\DEBUG\UTILITIES.OBJ
Z:\DEVELOPMENT\C++\ULTRAGREPSOCKETS\X64\DEBUG\GREPSERVER.ILK
Z:\DEVELOPMENT\C++\ULTRAGREPSOCKETS\X64\DEBUG\GREPSERVER.EXE
Z:\DEVELOPMENT\C++\ULTRAGREPSOCKETS\X64\DEBUG\GREPSERVER.PDB
